// Jest Snapshot v1, https://goo.gl/fbAQLP

exports[`consumeProviderToken throws error when connection is bad 1`] = `"Bad connection"`;

exports[`consumeProviderToken throws error when provider type is google but id token is not specified 1`] = `"\\"idToken\\" should not be empty when provider type is \\"google\\""`;

exports[`consumeProviderToken throws error when server does not response 200 or format is invalid 1`] = `
Object {
  "detail": Object {
    "items": Array [],
    "message": "未知的錯誤",
    "statusCode": 4008,
  },
  "message": "Failed to renew credentials, see detail for more information :(",
}
`;
